Process subnational statistics • mapspamc
…
Check and calibrate subnational statistics

After most hard work is done, the ha, fs and cs files need to be checked for consistency and calibrated to the FAOSTAT national statistics. This is done in 03_check_and_calibrate_statistics.r. The first step is to check if the data is consistent, which is done by check_statistics(). If out = TRUE is set a report is returned which shows where the inconsistencies occur.

# Check the consistency of the ha statistics
check_statistics(ha_df, param, out = TRUE)
#> adm0 and adm1 are not equal!. Did you run rebalance_stat?
#> # A tibble: 29 x 4
#> # Groups:   crop [29]
#>    crop     adm0    adm1 difference
#>    <chr>   <dbl>   <dbl>      <dbl>
#>  1 bana    18342   18208        134
#>  2 bean   281065  281058          7
#>  3 cass   193993  193932         61
#>  4 chic   128936  128933          3
#>  5 coff     3001    3001          0
#>  6 cott    63552   63552          0
#>  7 cowp    64297   64297          0
#>  8 grou   290092  290093         -1
#>  9 lent     1904    1905         -1
#> 10 maiz  1660214 1660044        170
#> # ... with 19 more rows
…
