Process subnational statistics • mapspamc
…
A file with Harvest area statistics (ha) in hectares for all subnational administrative unit at each level.

A file with Farming system shares (fs) (not percentages!) for each subnational administrative unit at the national level. If the model is solved at the subnational level 1 (by setting the model level to 1), also farming system share data need to be provided for that level.

A file with the Cropping intensity (ci) for each subnational administrative unit at the national and subnational 1 (similar to the farming system shares).

All Crop statistics need to be stored using in the wide format. With this we mean that the first three or four columns of the data table list the administrative unit code (adm_code), name (adm_name), level (adm_level) and potentially the farming system (system) in case of farming system shares or cropping intensity data, followed by named columns, one for each crop, with harvested area, farming system shares or cropping intensity per subnational unit. adm_name and adm_code must be provided up to the most detailed administrative unit for which data is available. Hence, in case level 2 data is available, data should be supplied for level 0, 1 and 2. In case only level 1 data is available, data should be supplied for level 0 and level 1.

create_statistics_template() will create templates for the ha, fs and ci data files - also see the Malawi ha, fs and ci files for examples. The number and depth of the administrative units will be determined by the model parameters stored in the spamc_par object as well as the adm_list file that is created with create_adm_list(). By defauls, the template will have columns for all 40 SPAMc crops.

You can save the template as csv file and use it as a basis to prepare the statistics. Note that is is essential that you follow the template closely! Adding or removing administrative units will result in errors as the data no longer matches with the map that contains the location of the administrative units. See below for more information how to deal with missing crop information. In case of Malawi, we use raw data from global SPAM for 2010. Most of the data was already in the right format so we did not use them.

# Create template for ha. Replace "ha" by "fs" or "ci" for other templates.
create_statistics_template("ha", param)
#> # A tibble: 31 x 43
#>    adm_name adm_code adm_level whea  rice  maiz  barl  mill  sorg  ocer  pota 
#>    <chr>    <chr>        <dbl> <lgl> <lgl> <lgl> <lgl> <lgl> <lgl> <lgl> <lgl>
#>  1 Malawi   MWI              0 NA    NA    NA    NA    NA    NA    NA    NA   
#>  2 Central~ MI02             1 NA    NA    NA    NA    NA    NA    NA    NA   
#>  3 Norther~ MI03             1 NA    NA    NA    NA    NA    NA    NA    NA   
#>  4 Souther~ MI04             1 NA    NA    NA    NA    NA    NA    NA    NA   
#>  5 Dedza    MI02001          2 NA    NA    NA    NA    NA    NA    NA    NA   
#>  6 Dowa     MI02002          2 NA    NA    NA    NA    NA    NA    NA    NA   
#>  7 Kasungu  MI02003          2 NA    NA    NA    NA    NA    NA    NA    NA   
#>  8 Lilongwe MI02004          2 NA    NA    NA    NA    NA    NA    NA    NA   
#>  9 Mchinji  MI02005          2 NA    NA    NA    NA    NA    NA    NA    NA   
#> 10 Nkhotak~ MI02006          2 NA    NA    NA    NA    NA    NA    NA    NA   
#> # ... with 21 more rows, and 32 more variables: swpo <lgl>, yams <lgl>,
#> #   cass <lgl>, orts <lgl>, bean <lgl>, chic <lgl>, cowp <lgl>, pige <lgl>,
#> #   lent <lgl>, opul <lgl>, soyb <lgl>, grou <lgl>, cnut <lgl>, oilp <lgl>,
#> #   sunf <lgl>, rape <lgl>, sesa <lgl>, ooil <lgl>, sugc <lgl>, sugb <lgl>,
#> #   cott <lgl>, ofib <lgl>, coff <lgl>, coco <lgl>, teas <lgl>, toba <lgl>,
#> #   bana <lgl>, plnt <lgl>, trof <lgl>, temf <lgl>, vege <lgl>, rest <lgl>
…
Check and calibrate subnational statistics

Now most hard work is done, the ha, fs and cs files need to be checked for consistency and calibrated to the FAOSTAT national statistics. This is done in 03_check_and_calibrate_statistics.r. The first step is to check if the data is consistent, which is done by check_statistics(). If out = TRUE is set a report is returned which shows where the inconsistencies occur.

# Check the consistency of the ha statistics
check_statistics(ha_df, param, out = TRUE)
#> adm0 and adm1 are not equal!. Did you run rebalance_stat?
#> # A tibble: 29 x 4
#> # Groups:   crop [29]
#>    crop     adm0    adm1 difference
#>    <chr>   <dbl>   <dbl>      <dbl>
#>  1 bana    18342   18208        134
#>  2 bean   281065  281058          7
#>  3 cass   193993  193932         61
#>  4 chic   128936  128933          3
#>  5 coff     3001    3001          0
#>  6 cott    63552   63552          0
#>  7 cowp    64297   64297          0
#>  8 grou   290092  290093         -1
#>  9 lent     1904    1905         -1
#> 10 maiz  1660214 1660044        170
#> # ... with 19 more rows
…
