2.1. Pre-processing: Subnational statistics • mapspamc
…
Check and calibrate statistics

After the raw subnational statistics are cleaned and harmonized, the
harvested area, production systems and cropping intensity files need to
be checked for consistency and calibrated to the FAOSTAT national
statistics. This is done in
04_check_and_calibrate_statistics.R. The first step is to
check if the data is consistent, which is done by
check_statistics(). If out = TRUE a report is
returned which shows where the inconsistencies occur.

# Check the consistency of the ha statistics
check_statistics(mapspamc::ha_df, param, out = TRUE)
#> adm0 and adm1 are not equal!. Did you run reaggregate_statistics()?
#> # A tibble: 29 × 4
#> # Groups:   crop [29]
#>    crop     adm0    adm1 difference
#>    <chr>   <dbl>   <dbl>      <dbl>
#>  1 bana    18342   18208        134
#>  2 bean   281065  281058          7
#>  3 cass   193993  193932         61
#>  4 chic   128936  128933          3
#>  5 coff     3001    3001          0
#>  6 cott    63552   63552          0
#>  7 cowp    64297   64297          0
#>  8 grou   290092  290093         -1
#>  9 lent     1904    1905         -1
#> 10 maiz  1660214 1660044        170
#> # ℹ 19 more rows
…
